{
    "containerDefinitions": [
        {
            "name": "burger-maker",
            "image": "${docker_image}",
            "cpu": 256,
            "memoryReservation": 512,
            "links": [],
            "portMappings": [
                {
                    "containerPort": 80,
                    "hostPort": 80,
                    "protocol": "tcp"
                }
            ],
            "essential": true
        }
    ],
    "networkMode": "awsvpc",
    "volumes": [],
    "requiresCompatibilities": [
        "FARGATE"
    ],
    "cpu": "256",
    "memory": "512"
}
